<svg width="48" height="28" viewBox="0 0 48 28" fill="none" xmlns="http://www.w3.org/2000/svg">
<path d="M6 22H41M6 14.0504H23.5H41M6 6H41" stroke="black" stroke-width="3" stroke-linecap="round" stroke-linejoin="round"/>
</svg>
